module github.com/thorstenkloehn/mitgliederverwaltung

go 1.17

require (
	github.com/fsnotify/fsnotify v1.5.1 // indirect
	github.com/go-sql-driver/mysql v1.6.0 // indirect
	github.com/hashicorp/hcl v1.0.0 // indirect
	github.com/jinzhu/inflection v1.0.0 // indirect
	github.com/jinzhu/now v1.1.4 // indirect
	github.com/magiconair/properties v1.8.5 // indirect
	github.com/mattn/go-sqlite3 v1.14.11 // indirect
	github.com/mitchellh/mapstructure v1.4.3 // indirect
	github.com/pelletier/go-toml v1.9.4 // indirect
	github.com/spf13/afero v1.6.0 // indirect
	github.com/spf13/cast v1.4.1 // indirect
	github.com/spf13/jwalterweatherman v1.1.0 // indirect
	github.com/spf13/pflag v1.0.5 // indirect
	github.com/spf13/viper v1.10.1 // indirect
	github.com/subosito/gotenv v1.2.0 // indirect
	golang.org/x/sys v0.0.0-20211210111614-af8b64212486 // indirect
	golang.org/x/text v0.3.7 // indirect
	gopkg.in/ini.v1 v1.66.2 // indirect
	gopkg.in/yaml.v2 v2.4.0 // indirect
	gorm.io/driver/mysql v1.2.3 // indirect
	gorm.io/driver/sqlite v1.2.6 // indirect
	gorm.io/gorm v1.22.5 // indirect
	gorm.io/plugin/dbresolver v1.1.0 // indirect
)
